<svg xmlns="http://www.w3.org/2000/svg" xmlns:xlink="http://www.w3.org/1999/xlink" version="1.1" viewBox="-20 -20 500 200" width="1000" height="400">
  <defs />
  <g>
    <g style="font-family: monospace; font-size: 0.9em">
      <rect x="10" y="36" width="440" height="40" fill="#bac8d3" stroke="#000" />
      <text x="0" y="57">t</text>
      <rect x="50" y="36" width="350" height="40" fill="#FFF" stroke="#000" />
      <text x="53" y="30">i</text>
      <rect x="50" y="36" width="10" height="40" fill="#FFF" stroke="#000" />
      <text x="167" y="30">i+k</text>
      <rect x="170" y="36" width="10" height="40" fill="#FFF" stroke="#000" />
      <text x="280" y="30">j-k</text>
      <rect x="290" y="36" width="10" height="40" fill="#FFF" stroke="#000" />
      <text x="400" y="30">j</text>
      <rect x="400" y="36" width="10" height="40" fill="#FFF" stroke="#000" />
    </g>
    <g style="font-size: 1em;">
      <path d="M 50 36 L 50 6 L 300 6 L 300 36" fill="none" stroke="rgb(0, 0, 0)" stroke-width="2" stroke-miterlimit="10" stroke-dasharray="2 6" pointer-events="stroke" />
      <text x="100" y="0">deux premiers tiers</text>
      <path d="M 170 76 L 170 96 L 410 96 L 410 76" fill="none" stroke="rgb(0, 0, 0)" stroke-width="2" stroke-miterlimit="10" stroke-dasharray="2 6" pointer-events="stroke" />
      <text x="230" y="120">deux derniers tiers</text>
    </g>
  </g>
</svg>
